>>>>>>>>>>>>>>>>>>>>>>>>>>>>>>>>>>>>>>>>>>>>>>>>>>>>>>>>>>>>>>>>>>>>>>>>>>>>>>
>>>> Toolkit for HEP Event Generation - ThePEG f0c7c9e4efc0 (default) <<<<<<<<
>>>> Fri Nov 15 16:30:03 2019                                             <<<<
<<<<<<<<<<<<<<<<<<<<<<<<<<<<<<<<<<<<<<<<<<<<<<<<<<<<<<<<<<<<<<<<<<<<<<<<<<<<<<

>> Herwig b7689adb1ad6 (default) / ThePEG f0c7c9e4efc0 (default)

==============================================================================
Statistics for event handler 'EventHandler':
                                       generated    number of    Cross-section
                                          events     attempts             (nb)
==============================================================================
Total (from attempted events): including vetoed events           16.71(5)e-03
==============================================================================
Total (from generated events):            30000        30002     16.71(5)e-03
Events carry unit weights.
==============================================================================
Per matrix element breakdown:
MEbbarg2Y1bbar                                13           13         7(2)e-06
MEcbarg2Y1cbar                                26           26        14(3)e-06
MEsbarg2Y1sbar                                37           37        21(3)e-06
MEubarg2Y1ubar                                71           71        40(5)e-06
MEdbarg2Y1dbar                                95           95        53(5)e-06
MEdubar2Y1W-                                  52           52        29(4)e-06
MEddbar2Y1g                                 3578         3578      1.99(3)e-03
MEddbar2Y1gamma                               15           15         8(2)e-06
MEddbar2Y1Z0                                  14           14         8(2)e-06
MEddbar2Y1Y1                                   0            0                0
MEdg2Y1d                                     483          483      0.27(1)e-03
MEuubar2Y1g                                 7297         7297      4.06(4)e-03
MEuubar2Y1gamma                               89           89        50(5)e-06
MEuubar2Y1Z0                                  30           30        17(3)e-06
MEuubar2Y1Y1                                   0            0                0
MEudbar2Y1W+                                 112          112        62(6)e-06
MEug2Y1u                                    1293         1293      0.72(2)e-03
MEscbar2Y1W-                                   0            0                0
MEssbar2Y1g                                  108          108        60(6)e-06
MEssbar2Y1gamma                                0            0                0
MEssbar2Y1Z0                                   0            0                0
MEssbar2Y1Y1                                   0            0                0
MEsg2Y1s                                      32           32        18(3)e-06
MEccbar2Y1g                                   87           87        48(5)e-06
MEccbar2Y1gamma                                1            1       0.6(6)e-06
MEccbar2Y1Z0                                   0            0                0
MEccbar2Y1Y1                                   0            0                0
MEcsbar2Y1W+                                   0            0                0
MEcg2Y1c                                      29           29        16(3)e-06
MEbbbar2Y1g                                   22           22        12(3)e-06
MEbbbar2Y1gamma                                0            0                0
MEbbbar2Y1Z0                                   0            0                0
MEbbbar2Y1H                                    0            0                0
MEbbbar2Y1Y1                                   0            0                0
MEbg2Y1b                                      18           18        10(2)e-06
MEbbbar2Y12XmXm                                0            0                0
MEbbbar2Y12ttbar                              11           11         6(2)e-06
MEbbbar2Y12bbbar                               5            5         3(1)e-06
MEbbbar2Y12ssbar                               9            9         5(2)e-06
MEbbbar2Y12ccbar                              10           10         6(2)e-06
MEbbbar2Y12ddbar                               8            8         4(2)e-06
MEbbbar2Y12uubar                              11           11         6(2)e-06
MEssbar2Y12XmXm                                0            0                0
MEssbar2Y12ttbar                              33           33        18(3)e-06
MEssbar2Y12bbbar                              42           42        23(4)e-06
MEssbar2Y12ssbar                              41           41        23(4)e-06
MEssbar2Y12ccbar                              47           47        26(4)e-06
MEssbar2Y12ddbar                              26           26        14(3)e-06
MEssbar2Y12uubar                              39           39        22(3)e-06
MEccbar2Y12XmXm                                0            0                0
MEccbar2Y12ttbar                              15           15         8(2)e-06
MEccbar2Y12bbbar                              29           29        16(3)e-06
MEccbar2Y12ssbar                              22           22        12(3)e-06
MEccbar2Y12ccbar                              26           26        14(3)e-06
MEccbar2Y12ddbar                              28           28        16(3)e-06
MEccbar2Y12uubar                              30           30        17(3)e-06
MEddbar2Y12XmXm                                1            1       0.6(6)e-06
MEddbar2Y12ttbar                             824          824      0.46(2)e-03
MEddbar2Y12bbbar                             943          943      0.53(2)e-03
MEddbar2Y12ssbar                             867          867      0.48(2)e-03
MEddbar2Y12ccbar                             926          926      0.52(2)e-03
MEddbar2Y12ddbar                             959          959      0.53(2)e-03
MEddbar2Y12uubar                             878          878      0.49(2)e-03
MEuubar2Y12XmXm                                0            0                0
MEuubar2Y12ttbar                            1678         1679      0.93(2)e-03
MEuubar2Y12bbbar                            1796         1796      1.00(2)e-03
MEuubar2Y12ssbar                            1735         1735      0.97(2)e-03
MEuubar2Y12ccbar                            1839         1839      1.02(2)e-03
MEuubar2Y12ddbar                            1779         1779      0.99(2)e-03
MEuubar2Y12uubar                            1841         1842      1.03(2)e-03
==============================================================================
Per parton extractor breakdown:
PPExtractor                                30000        30002     16.71(5)e-03
==============================================================================
Per incoming partons breakdown:
d dbar                                      4499         4499      2.51(4)e-03
d ubar                                        25           25        14(3)e-06
d g                                          251          251     0.140(9)e-03
dbar d                                      4506         4506      2.51(4)e-03
dbar u                                        58           58        32(4)e-06
dbar g                                        52           52        29(4)e-06
ubar d                                        27           27        15(3)e-06
ubar u                                      9148         9149      5.09(5)e-03
ubar g                                        31           31        17(3)e-06
u dbar                                        54           54        30(4)e-06
u ubar                                      8936         8937      4.98(5)e-03
u g                                          639          639      0.36(1)e-03
c cbar                                       118          118        66(6)e-06
c sbar                                         0            0                0
c g                                           15           15         8(2)e-06
cbar c                                       120          120        67(6)e-06
cbar s                                         0            0                0
cbar g                                         9            9         5(2)e-06
sbar c                                         0            0                0
sbar s                                       168          168        94(7)e-06
sbar g                                        18           18        10(2)e-06
s cbar                                         0            0                0
s sbar                                       168          168        94(7)e-06
s g                                           14           14         8(2)e-06
b bbar                                        52           52        29(4)e-06
b g                                            9            9         5(2)e-06
bbar b                                        24           24        13(3)e-06
bbar g                                         6            6         3(1)e-06
g d                                          232          232     0.129(8)e-03
g dbar                                        43           43        24(4)e-06
g ubar                                        40           40        22(4)e-06
g u                                          654          654      0.36(1)e-03
g c                                           14           14         8(2)e-06
g cbar                                        17           17         9(2)e-06
g sbar                                        19           19        11(2)e-06
g s                                           18           18        10(2)e-06
g b                                            9            9         5(2)e-06
g bbar                                         7            7         4(1)e-06
==============================================================================
Detailed breakdown:
(PPExtractor) bbar b (MEbbbar2Y1g b,bbar->Y1,g) 
                                               3            3         2(1)e-06
(PPExtractor) bbar b (MEbbbar2Y1gamma b,bbar->Y1,gamma) 
                                               0            0                0
(PPExtractor) bbar b (MEbbbar2Y1Z0 b,bbar->Y1,Z0) 
                                               0            0                0
(PPExtractor) bbar b (MEbbbar2Y1H b,bbar->Y1,H) 
                                               0            0                0
(PPExtractor) bbar b (MEbbbar2Y1Y1 b,bbar->Y1,Y1) 
                                               0            0                0
(PPExtractor) bbar b (MEbbbar2Y12XmXm b,bbar->Xm,Xm) 
                                               0            0                0
(PPExtractor) bbar b (MEbbbar2Y12ttbar b,bbar->t,tbar) 
                                               5            5         3(1)e-06
(PPExtractor) bbar b (MEbbbar2Y12bbbar b,bbar->b,bbar) 
                                               1            1       0.6(6)e-06
(PPExtractor) bbar b (MEbbbar2Y12ssbar b,bbar->s,sbar) 
                                               6            6         3(1)e-06
(PPExtractor) bbar b (MEbbbar2Y12ccbar b,bbar->c,cbar) 
                                               2            2       1.1(8)e-06
(PPExtractor) bbar b (MEbbbar2Y12ddbar b,bbar->d,dbar) 
                                               2            2       1.1(8)e-06
(PPExtractor) bbar b (MEbbbar2Y12uubar b,bbar->u,ubar) 
                                               5            5         3(1)e-06
(PPExtractor) bbar g (MEbbarg2Y1bbar bbar,g->Y1,bbar) 
                                               6            6         3(1)e-06
(PPExtractor) cbar s (MEscbar2Y1W- s,cbar->Y1,W-) 
                                               0            0                0
(PPExtractor) cbar c (MEccbar2Y1g c,cbar->Y1,g) 
                                              51           51        28(4)e-06
(PPExtractor) cbar c (MEccbar2Y1gamma c,cbar->Y1,gamma) 
                                               1            1       0.6(6)e-06
(PPExtractor) cbar c (MEccbar2Y1Z0 c,cbar->Y1,Z0) 
                                               0            0                0
(PPExtractor) cbar c (MEccbar2Y1Y1 c,cbar->Y1,Y1) 
                                               0            0                0
(PPExtractor) cbar c (MEccbar2Y12XmXm c,cbar->Xm,Xm) 
                                               0            0                0
(PPExtractor) cbar c (MEccbar2Y12ttbar c,cbar->t,tbar) 
                                              11           11         6(2)e-06
(PPExtractor) cbar c (MEccbar2Y12bbbar c,cbar->b,bbar) 
                                              14           14         8(2)e-06
(PPExtractor) cbar c (MEccbar2Y12ssbar c,cbar->s,sbar) 
                                               9            9         5(2)e-06
(PPExtractor) cbar c (MEccbar2Y12ccbar c,cbar->c,cbar) 
                                              11           11         6(2)e-06
(PPExtractor) cbar c (MEccbar2Y12ddbar c,cbar->d,dbar) 
                                              12           12         7(2)e-06
(PPExtractor) cbar c (MEccbar2Y12uubar c,cbar->u,ubar) 
                                              11           11         6(2)e-06
(PPExtractor) cbar g (MEcbarg2Y1cbar cbar,g->Y1,cbar) 
                                               9            9         5(2)e-06
(PPExtractor) sbar s (MEssbar2Y1g s,sbar->Y1,g) 
                                              52           52        29(4)e-06
(PPExtractor) sbar s (MEssbar2Y1gamma s,sbar->Y1,gamma) 
                                               0            0                0
(PPExtractor) sbar s (MEssbar2Y1Z0 s,sbar->Y1,Z0) 
                                               0            0                0
(PPExtractor) sbar s (MEssbar2Y1Y1 s,sbar->Y1,Y1) 
                                               0            0                0
(PPExtractor) sbar s (MEssbar2Y12XmXm s,sbar->Xm,Xm) 
                                               0            0                0
(PPExtractor) sbar s (MEssbar2Y12ttbar s,sbar->t,tbar) 
                                              12           12         7(2)e-06
(PPExtractor) sbar s (MEssbar2Y12bbbar s,sbar->b,bbar) 
                                              22           22        12(3)e-06
(PPExtractor) sbar s (MEssbar2Y12ssbar s,sbar->s,sbar) 
                                              23           23        13(3)e-06
(PPExtractor) sbar s (MEssbar2Y12ccbar s,sbar->c,cbar) 
                                              25           25        14(3)e-06
(PPExtractor) sbar s (MEssbar2Y12ddbar s,sbar->d,dbar) 
                                              15           15         8(2)e-06
(PPExtractor) sbar s (MEssbar2Y12uubar s,sbar->u,ubar) 
                                              19           19        11(2)e-06
(PPExtractor) sbar c (MEcsbar2Y1W+ c,sbar->Y1,W+) 
                                               0            0                0
(PPExtractor) sbar g (MEsbarg2Y1sbar sbar,g->Y1,sbar) 
                                              18           18        10(2)e-06
(PPExtractor) ubar d (MEdubar2Y1W- d,ubar->Y1,W-) 
                                              27           27        15(3)e-06
(PPExtractor) ubar u (MEuubar2Y1g u,ubar->Y1,g) 
                                            3743         3743      2.08(3)e-03
(PPExtractor) ubar u (MEuubar2Y1gamma u,ubar->Y1,gamma) 
                                              43           43        24(4)e-06
(PPExtractor) ubar u (MEuubar2Y1Z0 u,ubar->Y1,Z0) 
                                              18           18        10(2)e-06
(PPExtractor) ubar u (MEuubar2Y1Y1 u,ubar->Y1,Y1) 
                                               0            0                0
(PPExtractor) ubar u (MEuubar2Y12XmXm u,ubar->Xm,Xm) 
                                               0            0                0
(PPExtractor) ubar u (MEuubar2Y12ttbar u,ubar->t,tbar) 
                                             842          842      0.47(2)e-03
(PPExtractor) ubar u (MEuubar2Y12bbbar u,ubar->b,bbar) 
                                             847          847      0.47(2)e-03
(PPExtractor) ubar u (MEuubar2Y12ssbar u,ubar->s,sbar) 
                                             864          864      0.48(2)e-03
(PPExtractor) ubar u (MEuubar2Y12ccbar u,ubar->c,cbar) 
                                             932          932      0.52(2)e-03
(PPExtractor) ubar u (MEuubar2Y12ddbar u,ubar->d,dbar) 
                                             901          901      0.50(2)e-03
(PPExtractor) ubar u (MEuubar2Y12uubar u,ubar->u,ubar) 
                                             958          959      0.53(2)e-03
(PPExtractor) ubar g (MEubarg2Y1ubar ubar,g->Y1,ubar) 
                                              31           31        17(3)e-06
(PPExtractor) dbar d (MEddbar2Y1g d,dbar->Y1,g) 
                                            1798         1798      1.00(2)e-03
(PPExtractor) dbar d (MEddbar2Y1gamma d,dbar->Y1,gamma) 
                                               9            9         5(2)e-06
(PPExtractor) dbar d (MEddbar2Y1Z0 d,dbar->Y1,Z0) 
                                               7            7         4(1)e-06
(PPExtractor) dbar d (MEddbar2Y1Y1 d,dbar->Y1,Y1) 
                                               0            0                0
(PPExtractor) dbar d (MEddbar2Y12XmXm d,dbar->Xm,Xm) 
                                               0            0                0
(PPExtractor) dbar d (MEddbar2Y12ttbar d,dbar->t,tbar) 
                                             401          401      0.22(1)e-03
(PPExtractor) dbar d (MEddbar2Y12bbbar d,dbar->b,bbar) 
                                             496          496      0.28(1)e-03
(PPExtractor) dbar d (MEddbar2Y12ssbar d,dbar->s,sbar) 
                                             413          413      0.23(1)e-03
(PPExtractor) dbar d (MEddbar2Y12ccbar d,dbar->c,cbar) 
                                             469          469      0.26(1)e-03
(PPExtractor) dbar d (MEddbar2Y12ddbar d,dbar->d,dbar) 
                                             473          473      0.26(1)e-03
(PPExtractor) dbar d (MEddbar2Y12uubar d,dbar->u,ubar) 
                                             440          440      0.25(1)e-03
(PPExtractor) dbar u (MEudbar2Y1W+ u,dbar->Y1,W+) 
                                              58           58        32(4)e-06
(PPExtractor) dbar g (MEdbarg2Y1dbar dbar,g->Y1,dbar) 
                                              52           52        29(4)e-06
(PPExtractor) d ubar (MEdubar2Y1W- d,ubar->Y1,W-) 
                                              25           25        14(3)e-06
(PPExtractor) d dbar (MEddbar2Y1g d,dbar->Y1,g) 
                                            1780         1780      0.99(2)e-03
(PPExtractor) d dbar (MEddbar2Y1gamma d,dbar->Y1,gamma) 
                                               6            6         3(1)e-06
(PPExtractor) d dbar (MEddbar2Y1Z0 d,dbar->Y1,Z0) 
                                               7            7         4(1)e-06
(PPExtractor) d dbar (MEddbar2Y1Y1 d,dbar->Y1,Y1) 
                                               0            0                0
(PPExtractor) d dbar (MEddbar2Y12XmXm d,dbar->Xm,Xm) 
                                               1            1       0.6(6)e-06
(PPExtractor) d dbar (MEddbar2Y12ttbar d,dbar->t,tbar) 
                                             423          423      0.24(1)e-03
(PPExtractor) d dbar (MEddbar2Y12bbbar d,dbar->b,bbar) 
                                             447          447      0.25(1)e-03
(PPExtractor) d dbar (MEddbar2Y12ssbar d,dbar->s,sbar) 
                                             454          454      0.25(1)e-03
(PPExtractor) d dbar (MEddbar2Y12ccbar d,dbar->c,cbar) 
                                             457          457      0.25(1)e-03
(PPExtractor) d dbar (MEddbar2Y12ddbar d,dbar->d,dbar) 
                                             486          486      0.27(1)e-03
(PPExtractor) d dbar (MEddbar2Y12uubar d,dbar->u,ubar) 
                                             438          438      0.24(1)e-03
(PPExtractor) d g (MEdg2Y1d d,g->Y1,d) 
                                             251          251     0.140(9)e-03
(PPExtractor) u ubar (MEuubar2Y1g u,ubar->Y1,g) 
                                            3554         3554      1.98(3)e-03
(PPExtractor) u ubar (MEuubar2Y1gamma u,ubar->Y1,gamma) 
                                              46           46        26(4)e-06
(PPExtractor) u ubar (MEuubar2Y1Z0 u,ubar->Y1,Z0) 
                                              12           12         7(2)e-06
(PPExtractor) u ubar (MEuubar2Y1Y1 u,ubar->Y1,Y1) 
                                               0            0                0
(PPExtractor) u ubar (MEuubar2Y12XmXm u,ubar->Xm,Xm) 
                                               0            0                0
(PPExtractor) u ubar (MEuubar2Y12ttbar u,ubar->t,tbar) 
                                             836          837      0.47(2)e-03
(PPExtractor) u ubar (MEuubar2Y12bbbar u,ubar->b,bbar) 
                                             949          949      0.53(2)e-03
(PPExtractor) u ubar (MEuubar2Y12ssbar u,ubar->s,sbar) 
                                             871          871      0.49(2)e-03
(PPExtractor) u ubar (MEuubar2Y12ccbar u,ubar->c,cbar) 
                                             907          907      0.51(2)e-03
(PPExtractor) u ubar (MEuubar2Y12ddbar u,ubar->d,dbar) 
                                             878          878      0.49(2)e-03
(PPExtractor) u ubar (MEuubar2Y12uubar u,ubar->u,ubar) 
                                             883          883      0.49(2)e-03
(PPExtractor) u dbar (MEudbar2Y1W+ u,dbar->Y1,W+) 
                                              54           54        30(4)e-06
(PPExtractor) u g (MEug2Y1u u,g->Y1,u) 
                                             639          639      0.36(1)e-03
(PPExtractor) s cbar (MEscbar2Y1W- s,cbar->Y1,W-) 
                                               0            0                0
(PPExtractor) s sbar (MEssbar2Y1g s,sbar->Y1,g) 
                                              56           56        31(4)e-06
(PPExtractor) s sbar (MEssbar2Y1gamma s,sbar->Y1,gamma) 
                                               0            0                0
(PPExtractor) s sbar (MEssbar2Y1Z0 s,sbar->Y1,Z0) 
                                               0            0                0
(PPExtractor) s sbar (MEssbar2Y1Y1 s,sbar->Y1,Y1) 
                                               0            0                0
(PPExtractor) s sbar (MEssbar2Y12XmXm s,sbar->Xm,Xm) 
                                               0            0                0
(PPExtractor) s sbar (MEssbar2Y12ttbar s,sbar->t,tbar) 
                                              21           21        12(3)e-06
(PPExtractor) s sbar (MEssbar2Y12bbbar s,sbar->b,bbar) 
                                              20           20        11(2)e-06
(PPExtractor) s sbar (MEssbar2Y12ssbar s,sbar->s,sbar) 
                                              18           18        10(2)e-06
(PPExtractor) s sbar (MEssbar2Y12ccbar s,sbar->c,cbar) 
                                              22           22        12(3)e-06
(PPExtractor) s sbar (MEssbar2Y12ddbar s,sbar->d,dbar) 
                                              11           11         6(2)e-06
(PPExtractor) s sbar (MEssbar2Y12uubar s,sbar->u,ubar) 
                                              20           20        11(2)e-06
(PPExtractor) s g (MEsg2Y1s s,g->Y1,s) 
                                              14           14         8(2)e-06
(PPExtractor) c cbar (MEccbar2Y1g c,cbar->Y1,g) 
                                              36           36        20(3)e-06
(PPExtractor) c cbar (MEccbar2Y1gamma c,cbar->Y1,gamma) 
                                               0            0                0
(PPExtractor) c cbar (MEccbar2Y1Z0 c,cbar->Y1,Z0) 
                                               0            0                0
(PPExtractor) c cbar (MEccbar2Y1Y1 c,cbar->Y1,Y1) 
                                               0            0                0
(PPExtractor) c cbar (MEccbar2Y12XmXm c,cbar->Xm,Xm) 
                                               0            0                0
(PPExtractor) c cbar (MEccbar2Y12ttbar c,cbar->t,tbar) 
                                               4            4         2(1)e-06
(PPExtractor) c cbar (MEccbar2Y12bbbar c,cbar->b,bbar) 
                                              15           15         8(2)e-06
(PPExtractor) c cbar (MEccbar2Y12ssbar c,cbar->s,sbar) 
                                              13           13         7(2)e-06
(PPExtractor) c cbar (MEccbar2Y12ccbar c,cbar->c,cbar) 
                                              15           15         8(2)e-06
(PPExtractor) c cbar (MEccbar2Y12ddbar c,cbar->d,dbar) 
                                              16           16         9(2)e-06
(PPExtractor) c cbar (MEccbar2Y12uubar c,cbar->u,ubar) 
                                              19           19        11(2)e-06
(PPExtractor) c sbar (MEcsbar2Y1W+ c,sbar->Y1,W+) 
                                               0            0                0
(PPExtractor) c g (MEcg2Y1c c,g->Y1,c) 
                                              15           15         8(2)e-06
(PPExtractor) b bbar (MEbbbar2Y1g b,bbar->Y1,g) 
                                              19           19        11(2)e-06
(PPExtractor) b bbar (MEbbbar2Y1gamma b,bbar->Y1,gamma) 
                                               0            0                0
(PPExtractor) b bbar (MEbbbar2Y1Z0 b,bbar->Y1,Z0) 
                                               0            0                0
(PPExtractor) b bbar (MEbbbar2Y1H b,bbar->Y1,H) 
                                               0            0                0
(PPExtractor) b bbar (MEbbbar2Y1Y1 b,bbar->Y1,Y1) 
                                               0            0                0
(PPExtractor) b bbar (MEbbbar2Y12XmXm b,bbar->Xm,Xm) 
                                               0            0                0
(PPExtractor) b bbar (MEbbbar2Y12ttbar b,bbar->t,tbar) 
                                               6            6         3(1)e-06
(PPExtractor) b bbar (MEbbbar2Y12bbbar b,bbar->b,bbar) 
                                               4            4         2(1)e-06
(PPExtractor) b bbar (MEbbbar2Y12ssbar b,bbar->s,sbar) 
                                               3            3         2(1)e-06
(PPExtractor) b bbar (MEbbbar2Y12ccbar b,bbar->c,cbar) 
                                               8            8         4(2)e-06
(PPExtractor) b bbar (MEbbbar2Y12ddbar b,bbar->d,dbar) 
                                               6            6         3(1)e-06
(PPExtractor) b bbar (MEbbbar2Y12uubar b,bbar->u,ubar) 
                                               6            6         3(1)e-06
(PPExtractor) b g (MEbg2Y1b b,g->Y1,b) 
                                               9            9         5(2)e-06
(PPExtractor) g bbar (MEbbarg2Y1bbar bbar,g->Y1,bbar) 
                                               7            7         4(1)e-06
(PPExtractor) g cbar (MEcbarg2Y1cbar cbar,g->Y1,cbar) 
                                              17           17         9(2)e-06
(PPExtractor) g sbar (MEsbarg2Y1sbar sbar,g->Y1,sbar) 
                                              19           19        11(2)e-06
(PPExtractor) g ubar (MEubarg2Y1ubar ubar,g->Y1,ubar) 
                                              40           40        22(4)e-06
(PPExtractor) g dbar (MEdbarg2Y1dbar dbar,g->Y1,dbar) 
                                              43           43        24(4)e-06
(PPExtractor) g d (MEdg2Y1d d,g->Y1,d) 
                                             232          232     0.129(8)e-03
(PPExtractor) g u (MEug2Y1u u,g->Y1,u) 
                                             654          654      0.36(1)e-03
(PPExtractor) g s (MEsg2Y1s s,g->Y1,s) 
                                              18           18        10(2)e-06
(PPExtractor) g c (MEcg2Y1c c,g->Y1,c) 
                                              14           14         8(2)e-06
(PPExtractor) g b (MEbg2Y1b b,g->Y1,b) 
                                               9            9         5(2)e-06
==============================================================================
