>>>>>>>>>>>>>>>>>>>>>>>>>>>>>>>>>>>>>>>>>>>>>>>>>>>>>>>>>>>>>>>>>>>>>>>>>>>>>>
>>>> Toolkit for HEP Event Generation - ThePEG f0c7c9e4efc0 (default) <<<<<<<<
>>>> Fri Nov 15 16:28:52 2019                                             <<<<
<<<<<<<<<<<<<<<<<<<<<<<<<<<<<<<<<<<<<<<<<<<<<<<<<<<<<<<<<<<<<<<<<<<<<<<<<<<<<<

>> Herwig b7689adb1ad6 (default) / ThePEG f0c7c9e4efc0 (default)

==============================================================================
Statistics for event handler 'EventHandler':
                                       generated    number of    Cross-section
                                          events     attempts             (nb)
==============================================================================
Total (from attempted events): including vetoed events           11.54(3)e-03
==============================================================================
Total (from generated events):            30000        30000     11.54(3)e-03
Events carry unit weights.
==============================================================================
Per matrix element breakdown:
MEbbarg2Y1bbar                                 9            9         3(1)e-06
MEcbarg2Y1cbar                                17           17         7(2)e-06
MEsbarg2Y1sbar                                24           24         9(2)e-06
MEubarg2Y1ubar                                41           41        16(2)e-06
MEdbarg2Y1dbar                                83           83        32(3)e-06
MEdubar2Y1W-                                  28           28        11(2)e-06
MEddbar2Y1g                                 3329         3329      1.28(2)e-03
MEddbar2Y1gamma                               21           21         8(2)e-06
MEddbar2Y1Z0                                  13           13         5(1)e-06
MEddbar2Y1Y1                                   0            0                0
MEdg2Y1d                                     389          389     0.150(8)e-03
MEuubar2Y1g                                 7022         7022      2.70(3)e-03
MEuubar2Y1gamma                              113          113        43(4)e-06
MEuubar2Y1Z0                                  33           33        13(2)e-06
MEuubar2Y1Y1                                   0            0                0
MEudbar2Y1W+                                 119          119        46(4)e-06
MEug2Y1u                                    1179         1179      0.45(1)e-03
MEscbar2Y1W-                                   2            2       0.8(5)e-06
MEssbar2Y1g                                   96           96        37(4)e-06
MEssbar2Y1gamma                                1            1       0.4(4)e-06
MEssbar2Y1Z0                                   1            1       0.4(4)e-06
MEssbar2Y1Y1                                   0            0                0
MEsg2Y1s                                      22           22         8(2)e-06
MEccbar2Y1g                                   69           69        27(3)e-06
MEccbar2Y1gamma                                0            0                0
MEccbar2Y1Z0                                   0            0                0
MEccbar2Y1Y1                                   0            0                0
MEcsbar2Y1W+                                   1            1       0.4(4)e-06
MEcg2Y1c                                      21           21         8(2)e-06
MEbbbar2Y1g                                   23           23         9(2)e-06
MEbbbar2Y1gamma                                0            0                0
MEbbbar2Y1Z0                                   1            1       0.4(4)e-06
MEbbbar2Y1H                                    0            0                0
MEbbbar2Y1Y1                                   0            0                0
MEbg2Y1b                                      13           13         5(1)e-06
MEbbbar2Y12XmXm                                1            1       0.4(4)e-06
MEbbbar2Y12ttbar                               2            2       0.8(5)e-06
MEbbbar2Y12bbbar                               8            8         3(1)e-06
MEbbbar2Y12ssbar                              12           12         5(1)e-06
MEbbbar2Y12ccbar                               4            4       1.5(8)e-06
MEbbbar2Y12ddbar                               7            7         3(1)e-06
MEbbbar2Y12uubar                               8            8         3(1)e-06
MEssbar2Y12XmXm                                1            1       0.4(4)e-06
MEssbar2Y12ttbar                              29           29        11(2)e-06
MEssbar2Y12bbbar                              27           27        10(2)e-06
MEssbar2Y12ssbar                              29           29        11(2)e-06
MEssbar2Y12ccbar                              26           26        10(2)e-06
MEssbar2Y12ddbar                              25           25       9.6(2)e-06
MEssbar2Y12uubar                              42           42        16(2)e-06
MEccbar2Y12XmXm                                2            2       0.8(5)e-06
MEccbar2Y12ttbar                              26           26        10(2)e-06
MEccbar2Y12bbbar                              25           25       9.6(2)e-06
MEccbar2Y12ssbar                              18           18         7(2)e-06
MEccbar2Y12ccbar                              31           31        12(2)e-06
MEccbar2Y12ddbar                              23           23         9(2)e-06
MEccbar2Y12uubar                              15           15         6(1)e-06
MEddbar2Y12XmXm                               62           62        24(3)e-06
MEddbar2Y12ttbar                             890          890      0.34(1)e-03
MEddbar2Y12bbbar                             949          949      0.36(1)e-03
MEddbar2Y12ssbar                             912          912      0.35(1)e-03
MEddbar2Y12ccbar                             964          964      0.37(1)e-03
MEddbar2Y12ddbar                             933          933      0.36(1)e-03
MEddbar2Y12uubar                             931          931      0.36(1)e-03
MEuubar2Y12XmXm                              135          135        52(4)e-06
MEuubar2Y12ttbar                            1749         1749      0.67(2)e-03
MEuubar2Y12bbbar                            1883         1883      0.72(2)e-03
MEuubar2Y12ssbar                            1877         1877      0.72(2)e-03
MEuubar2Y12ccbar                            1925         1925      0.74(2)e-03
MEuubar2Y12ddbar                            1906         1906      0.73(2)e-03
MEuubar2Y12uubar                            1853         1853      0.71(2)e-03
==============================================================================
Per parton extractor breakdown:
PPExtractor                                30000        30000     11.54(3)e-03
==============================================================================
Per incoming partons breakdown:
d dbar                                      4484         4484      1.72(2)e-03
d ubar                                        16           16         6(2)e-06
d g                                          200          200        77(5)e-06
dbar d                                      4520         4520      1.74(2)e-03
dbar u                                        62           62        24(3)e-06
dbar g                                        37           37        14(2)e-06
ubar d                                        12           12         5(1)e-06
ubar u                                      9219         9219      3.54(3)e-03
ubar g                                        22           22         8(2)e-06
u dbar                                        57           57        22(3)e-06
u ubar                                      9277         9277      3.57(3)e-03
u g                                          589          589     0.226(9)e-03
c cbar                                       100          100        38(4)e-06
c sbar                                         0            0                0
c g                                           12           12         5(1)e-06
cbar c                                       109          109        42(4)e-06
cbar s                                         1            1       0.4(4)e-06
cbar g                                        11           11         4(1)e-06
sbar c                                         1            1       0.4(4)e-06
sbar s                                       138          138        53(5)e-06
sbar g                                        14           14         5(1)e-06
s cbar                                         1            1       0.4(4)e-06
s sbar                                       139          139        53(5)e-06
s g                                           11           11         4(1)e-06
b bbar                                        30           30        12(2)e-06
b g                                            5            5       1.9(9)e-06
bbar b                                        36           36        14(2)e-06
bbar g                                         4            4       1.5(8)e-06
g d                                          189          189        73(5)e-06
g dbar                                        46           46        18(3)e-06
g ubar                                        19           19         7(2)e-06
g u                                          590          590     0.227(9)e-03
g c                                            9            9         3(1)e-06
g cbar                                         6            6       2.3(9)e-06
g sbar                                        10           10         4(1)e-06
g s                                           11           11         4(1)e-06
g b                                            8            8         3(1)e-06
g bbar                                         5            5       1.9(9)e-06
==============================================================================
Detailed breakdown:
(PPExtractor) bbar b (MEbbbar2Y1g b,bbar->Y1,g) 
                                              13           13         5(1)e-06
(PPExtractor) bbar b (MEbbbar2Y1gamma b,bbar->Y1,gamma) 
                                               0            0                0
(PPExtractor) bbar b (MEbbbar2Y1Z0 b,bbar->Y1,Z0) 
                                               0            0                0
(PPExtractor) bbar b (MEbbbar2Y1H b,bbar->Y1,H) 
                                               0            0                0
(PPExtractor) bbar b (MEbbbar2Y1Y1 b,bbar->Y1,Y1) 
                                               0            0                0
(PPExtractor) bbar b (MEbbbar2Y12XmXm b,bbar->Xm,Xm) 
                                               1            1       0.4(4)e-06
(PPExtractor) bbar b (MEbbbar2Y12ttbar b,bbar->t,tbar) 
                                               0            0                0
(PPExtractor) bbar b (MEbbbar2Y12bbbar b,bbar->b,bbar) 
                                               4            4       1.5(8)e-06
(PPExtractor) bbar b (MEbbbar2Y12ssbar b,bbar->s,sbar) 
                                               8            8         3(1)e-06
(PPExtractor) bbar b (MEbbbar2Y12ccbar b,bbar->c,cbar) 
                                               2            2       0.8(5)e-06
(PPExtractor) bbar b (MEbbbar2Y12ddbar b,bbar->d,dbar) 
                                               5            5       1.9(9)e-06
(PPExtractor) bbar b (MEbbbar2Y12uubar b,bbar->u,ubar) 
                                               3            3       1.2(7)e-06
(PPExtractor) bbar g (MEbbarg2Y1bbar bbar,g->Y1,bbar) 
                                               4            4       1.5(8)e-06
(PPExtractor) cbar s (MEscbar2Y1W- s,cbar->Y1,W-) 
                                               1            1       0.4(4)e-06
(PPExtractor) cbar c (MEccbar2Y1g c,cbar->Y1,g) 
                                              27           27        10(2)e-06
(PPExtractor) cbar c (MEccbar2Y1gamma c,cbar->Y1,gamma) 
                                               0            0                0
(PPExtractor) cbar c (MEccbar2Y1Z0 c,cbar->Y1,Z0) 
                                               0            0                0
(PPExtractor) cbar c (MEccbar2Y1Y1 c,cbar->Y1,Y1) 
                                               0            0                0
(PPExtractor) cbar c (MEccbar2Y12XmXm c,cbar->Xm,Xm) 
                                               2            2       0.8(5)e-06
(PPExtractor) cbar c (MEccbar2Y12ttbar c,cbar->t,tbar) 
                                              12           12         5(1)e-06
(PPExtractor) cbar c (MEccbar2Y12bbbar c,cbar->b,bbar) 
                                              17           17         7(2)e-06
(PPExtractor) cbar c (MEccbar2Y12ssbar c,cbar->s,sbar) 
                                              12           12         5(1)e-06
(PPExtractor) cbar c (MEccbar2Y12ccbar c,cbar->c,cbar) 
                                              18           18         7(2)e-06
(PPExtractor) cbar c (MEccbar2Y12ddbar c,cbar->d,dbar) 
                                              10           10         4(1)e-06
(PPExtractor) cbar c (MEccbar2Y12uubar c,cbar->u,ubar) 
                                              11           11         4(1)e-06
(PPExtractor) cbar g (MEcbarg2Y1cbar cbar,g->Y1,cbar) 
                                              11           11         4(1)e-06
(PPExtractor) sbar s (MEssbar2Y1g s,sbar->Y1,g) 
                                              48           48        18(3)e-06
(PPExtractor) sbar s (MEssbar2Y1gamma s,sbar->Y1,gamma) 
                                               1            1       0.4(4)e-06
(PPExtractor) sbar s (MEssbar2Y1Z0 s,sbar->Y1,Z0) 
                                               0            0                0
(PPExtractor) sbar s (MEssbar2Y1Y1 s,sbar->Y1,Y1) 
                                               0            0                0
(PPExtractor) sbar s (MEssbar2Y12XmXm s,sbar->Xm,Xm) 
                                               0            0                0
(PPExtractor) sbar s (MEssbar2Y12ttbar s,sbar->t,tbar) 
                                              10           10         4(1)e-06
(PPExtractor) sbar s (MEssbar2Y12bbbar s,sbar->b,bbar) 
                                              15           15         6(1)e-06
(PPExtractor) sbar s (MEssbar2Y12ssbar s,sbar->s,sbar) 
                                              16           16         6(2)e-06
(PPExtractor) sbar s (MEssbar2Y12ccbar s,sbar->c,cbar) 
                                              14           14         5(1)e-06
(PPExtractor) sbar s (MEssbar2Y12ddbar s,sbar->d,dbar) 
                                              12           12         5(1)e-06
(PPExtractor) sbar s (MEssbar2Y12uubar s,sbar->u,ubar) 
                                              22           22         8(2)e-06
(PPExtractor) sbar c (MEcsbar2Y1W+ c,sbar->Y1,W+) 
                                               1            1       0.4(4)e-06
(PPExtractor) sbar g (MEsbarg2Y1sbar sbar,g->Y1,sbar) 
                                              14           14         5(1)e-06
(PPExtractor) ubar d (MEdubar2Y1W- d,ubar->Y1,W-) 
                                              12           12         5(1)e-06
(PPExtractor) ubar u (MEuubar2Y1g u,ubar->Y1,g) 
                                            3493         3493      1.34(2)e-03
(PPExtractor) ubar u (MEuubar2Y1gamma u,ubar->Y1,gamma) 
                                              54           54        21(3)e-06
(PPExtractor) ubar u (MEuubar2Y1Z0 u,ubar->Y1,Z0) 
                                              13           13         5(1)e-06
(PPExtractor) ubar u (MEuubar2Y1Y1 u,ubar->Y1,Y1) 
                                               0            0                0
(PPExtractor) ubar u (MEuubar2Y12XmXm u,ubar->Xm,Xm) 
                                              69           69        27(3)e-06
(PPExtractor) ubar u (MEuubar2Y12ttbar u,ubar->t,tbar) 
                                             901          901      0.35(1)e-03
(PPExtractor) ubar u (MEuubar2Y12bbbar u,ubar->b,bbar) 
                                             956          956      0.37(1)e-03
(PPExtractor) ubar u (MEuubar2Y12ssbar u,ubar->s,sbar) 
                                             889          889      0.34(1)e-03
(PPExtractor) ubar u (MEuubar2Y12ccbar u,ubar->c,cbar) 
                                             919          919      0.35(1)e-03
(PPExtractor) ubar u (MEuubar2Y12ddbar u,ubar->d,dbar) 
                                             976          976      0.38(1)e-03
(PPExtractor) ubar u (MEuubar2Y12uubar u,ubar->u,ubar) 
                                             949          949      0.36(1)e-03
(PPExtractor) ubar g (MEubarg2Y1ubar ubar,g->Y1,ubar) 
                                              22           22         8(2)e-06
(PPExtractor) dbar d (MEddbar2Y1g d,dbar->Y1,g) 
                                            1667         1667      0.64(2)e-03
(PPExtractor) dbar d (MEddbar2Y1gamma d,dbar->Y1,gamma) 
                                              13           13         5(1)e-06
(PPExtractor) dbar d (MEddbar2Y1Z0 d,dbar->Y1,Z0) 
                                              10           10         4(1)e-06
(PPExtractor) dbar d (MEddbar2Y1Y1 d,dbar->Y1,Y1) 
                                               0            0                0
(PPExtractor) dbar d (MEddbar2Y12XmXm d,dbar->Xm,Xm) 
                                              29           29        11(2)e-06
(PPExtractor) dbar d (MEddbar2Y12ttbar d,dbar->t,tbar) 
                                             431          431     0.166(8)e-03
(PPExtractor) dbar d (MEddbar2Y12bbbar d,dbar->b,bbar) 
                                             486          486     0.187(8)e-03
(PPExtractor) dbar d (MEddbar2Y12ssbar d,dbar->s,sbar) 
                                             488          488     0.188(8)e-03
(PPExtractor) dbar d (MEddbar2Y12ccbar d,dbar->c,cbar) 
                                             460          460     0.177(8)e-03
(PPExtractor) dbar d (MEddbar2Y12ddbar d,dbar->d,dbar) 
                                             457          457     0.176(8)e-03
(PPExtractor) dbar d (MEddbar2Y12uubar d,dbar->u,ubar) 
                                             479          479     0.184(8)e-03
(PPExtractor) dbar u (MEudbar2Y1W+ u,dbar->Y1,W+) 
                                              62           62        24(3)e-06
(PPExtractor) dbar g (MEdbarg2Y1dbar dbar,g->Y1,dbar) 
                                              37           37        14(2)e-06
(PPExtractor) d ubar (MEdubar2Y1W- d,ubar->Y1,W-) 
                                              16           16         6(2)e-06
(PPExtractor) d dbar (MEddbar2Y1g d,dbar->Y1,g) 
                                            1662         1662      0.64(2)e-03
(PPExtractor) d dbar (MEddbar2Y1gamma d,dbar->Y1,gamma) 
                                               8            8         3(1)e-06
(PPExtractor) d dbar (MEddbar2Y1Z0 d,dbar->Y1,Z0) 
                                               3            3       1.2(7)e-06
(PPExtractor) d dbar (MEddbar2Y1Y1 d,dbar->Y1,Y1) 
                                               0            0                0
(PPExtractor) d dbar (MEddbar2Y12XmXm d,dbar->Xm,Xm) 
                                              33           33        13(2)e-06
(PPExtractor) d dbar (MEddbar2Y12ttbar d,dbar->t,tbar) 
                                             459          459     0.176(8)e-03
(PPExtractor) d dbar (MEddbar2Y12bbbar d,dbar->b,bbar) 
                                             463          463     0.178(8)e-03
(PPExtractor) d dbar (MEddbar2Y12ssbar d,dbar->s,sbar) 
                                             424          424     0.163(8)e-03
(PPExtractor) d dbar (MEddbar2Y12ccbar d,dbar->c,cbar) 
                                             504          504     0.194(9)e-03
(PPExtractor) d dbar (MEddbar2Y12ddbar d,dbar->d,dbar) 
                                             476          476     0.183(8)e-03
(PPExtractor) d dbar (MEddbar2Y12uubar d,dbar->u,ubar) 
                                             452          452     0.174(8)e-03
(PPExtractor) d g (MEdg2Y1d d,g->Y1,d) 
                                             200          200        77(5)e-06
(PPExtractor) u ubar (MEuubar2Y1g u,ubar->Y1,g) 
                                            3529         3529      1.36(2)e-03
(PPExtractor) u ubar (MEuubar2Y1gamma u,ubar->Y1,gamma) 
                                              59           59        23(3)e-06
(PPExtractor) u ubar (MEuubar2Y1Z0 u,ubar->Y1,Z0) 
                                              20           20         8(2)e-06
(PPExtractor) u ubar (MEuubar2Y1Y1 u,ubar->Y1,Y1) 
                                               0            0                0
(PPExtractor) u ubar (MEuubar2Y12XmXm u,ubar->Xm,Xm) 
                                              66           66        25(3)e-06
(PPExtractor) u ubar (MEuubar2Y12ttbar u,ubar->t,tbar) 
                                             848          848      0.33(1)e-03
(PPExtractor) u ubar (MEuubar2Y12bbbar u,ubar->b,bbar) 
                                             927          927      0.36(1)e-03
(PPExtractor) u ubar (MEuubar2Y12ssbar u,ubar->s,sbar) 
                                             988          988      0.38(1)e-03
(PPExtractor) u ubar (MEuubar2Y12ccbar u,ubar->c,cbar) 
                                            1006         1006      0.39(1)e-03
(PPExtractor) u ubar (MEuubar2Y12ddbar u,ubar->d,dbar) 
                                             930          930      0.36(1)e-03
(PPExtractor) u ubar (MEuubar2Y12uubar u,ubar->u,ubar) 
                                             904          904      0.35(1)e-03
(PPExtractor) u dbar (MEudbar2Y1W+ u,dbar->Y1,W+) 
                                              57           57        22(3)e-06
(PPExtractor) u g (MEug2Y1u u,g->Y1,u) 
                                             589          589     0.226(9)e-03
(PPExtractor) s cbar (MEscbar2Y1W- s,cbar->Y1,W-) 
                                               1            1       0.4(4)e-06
(PPExtractor) s sbar (MEssbar2Y1g s,sbar->Y1,g) 
                                              48           48        18(3)e-06
(PPExtractor) s sbar (MEssbar2Y1gamma s,sbar->Y1,gamma) 
                                               0            0                0
(PPExtractor) s sbar (MEssbar2Y1Z0 s,sbar->Y1,Z0) 
                                               1            1       0.4(4)e-06
(PPExtractor) s sbar (MEssbar2Y1Y1 s,sbar->Y1,Y1) 
                                               0            0                0
(PPExtractor) s sbar (MEssbar2Y12XmXm s,sbar->Xm,Xm) 
                                               1            1       0.4(4)e-06
(PPExtractor) s sbar (MEssbar2Y12ttbar s,sbar->t,tbar) 
                                              19           19         7(2)e-06
(PPExtractor) s sbar (MEssbar2Y12bbbar s,sbar->b,bbar) 
                                              12           12         5(1)e-06
(PPExtractor) s sbar (MEssbar2Y12ssbar s,sbar->s,sbar) 
                                              13           13         5(1)e-06
(PPExtractor) s sbar (MEssbar2Y12ccbar s,sbar->c,cbar) 
                                              12           12         5(1)e-06
(PPExtractor) s sbar (MEssbar2Y12ddbar s,sbar->d,dbar) 
                                              13           13         5(1)e-06
(PPExtractor) s sbar (MEssbar2Y12uubar s,sbar->u,ubar) 
                                              20           20         8(2)e-06
(PPExtractor) s g (MEsg2Y1s s,g->Y1,s) 
                                              11           11         4(1)e-06
(PPExtractor) c cbar (MEccbar2Y1g c,cbar->Y1,g) 
                                              42           42        16(2)e-06
(PPExtractor) c cbar (MEccbar2Y1gamma c,cbar->Y1,gamma) 
                                               0            0                0
(PPExtractor) c cbar (MEccbar2Y1Z0 c,cbar->Y1,Z0) 
                                               0            0                0
(PPExtractor) c cbar (MEccbar2Y1Y1 c,cbar->Y1,Y1) 
                                               0            0                0
(PPExtractor) c cbar (MEccbar2Y12XmXm c,cbar->Xm,Xm) 
                                               0            0                0
(PPExtractor) c cbar (MEccbar2Y12ttbar c,cbar->t,tbar) 
                                              14           14         5(1)e-06
(PPExtractor) c cbar (MEccbar2Y12bbbar c,cbar->b,bbar) 
                                               8            8         3(1)e-06
(PPExtractor) c cbar (MEccbar2Y12ssbar c,cbar->s,sbar) 
                                               6            6       2.3(9)e-06
(PPExtractor) c cbar (MEccbar2Y12ccbar c,cbar->c,cbar) 
                                              13           13         5(1)e-06
(PPExtractor) c cbar (MEccbar2Y12ddbar c,cbar->d,dbar) 
                                              13           13         5(1)e-06
(PPExtractor) c cbar (MEccbar2Y12uubar c,cbar->u,ubar) 
                                               4            4       1.5(8)e-06
(PPExtractor) c sbar (MEcsbar2Y1W+ c,sbar->Y1,W+) 
                                               0            0                0
(PPExtractor) c g (MEcg2Y1c c,g->Y1,c) 
                                              12           12         5(1)e-06
(PPExtractor) b bbar (MEbbbar2Y1g b,bbar->Y1,g) 
                                              10           10         4(1)e-06
(PPExtractor) b bbar (MEbbbar2Y1gamma b,bbar->Y1,gamma) 
                                               0            0                0
(PPExtractor) b bbar (MEbbbar2Y1Z0 b,bbar->Y1,Z0) 
                                               1            1       0.4(4)e-06
(PPExtractor) b bbar (MEbbbar2Y1H b,bbar->Y1,H) 
                                               0            0                0
(PPExtractor) b bbar (MEbbbar2Y1Y1 b,bbar->Y1,Y1) 
                                               0            0                0
(PPExtractor) b bbar (MEbbbar2Y12XmXm b,bbar->Xm,Xm) 
                                               0            0                0
(PPExtractor) b bbar (MEbbbar2Y12ttbar b,bbar->t,tbar) 
                                               2            2       0.8(5)e-06
(PPExtractor) b bbar (MEbbbar2Y12bbbar b,bbar->b,bbar) 
                                               4            4       1.5(8)e-06
(PPExtractor) b bbar (MEbbbar2Y12ssbar b,bbar->s,sbar) 
                                               4            4       1.5(8)e-06
(PPExtractor) b bbar (MEbbbar2Y12ccbar b,bbar->c,cbar) 
                                               2            2       0.8(5)e-06
(PPExtractor) b bbar (MEbbbar2Y12ddbar b,bbar->d,dbar) 
                                               2            2       0.8(5)e-06
(PPExtractor) b bbar (MEbbbar2Y12uubar b,bbar->u,ubar) 
                                               5            5       1.9(9)e-06
(PPExtractor) b g (MEbg2Y1b b,g->Y1,b) 
                                               5            5       1.9(9)e-06
(PPExtractor) g bbar (MEbbarg2Y1bbar bbar,g->Y1,bbar) 
                                               5            5       1.9(9)e-06
(PPExtractor) g cbar (MEcbarg2Y1cbar cbar,g->Y1,cbar) 
                                               6            6       2.3(9)e-06
(PPExtractor) g sbar (MEsbarg2Y1sbar sbar,g->Y1,sbar) 
                                              10           10         4(1)e-06
(PPExtractor) g ubar (MEubarg2Y1ubar ubar,g->Y1,ubar) 
                                              19           19         7(2)e-06
(PPExtractor) g dbar (MEdbarg2Y1dbar dbar,g->Y1,dbar) 
                                              46           46        18(3)e-06
(PPExtractor) g d (MEdg2Y1d d,g->Y1,d) 
                                             189          189        73(5)e-06
(PPExtractor) g u (MEug2Y1u u,g->Y1,u) 
                                             590          590     0.227(9)e-03
(PPExtractor) g s (MEsg2Y1s s,g->Y1,s) 
                                              11           11         4(1)e-06
(PPExtractor) g c (MEcg2Y1c c,g->Y1,c) 
                                               9            9         3(1)e-06
(PPExtractor) g b (MEbg2Y1b b,g->Y1,b) 
                                               8            8         3(1)e-06
==============================================================================
